=====================
ROOT
==========================
Debugging Persistencies
[]
==========================
Debugging External Services
==========================
Debugging Persistency Services
==========================
Debugging Streams
RecordStream/FileRecord
{'Output': "DATAFILE='FishyStuff.dst' TYP='NOTYPE' OPT='REC'"}
RecordStream/FileRecord2
{'Output': "DATAFILE='FishyStuff.dst' TYP='NOTYPE' OPT='REC'"}
RecordStream/FileRecord3
{'Output': "DATAFILE='FishyStuff.dst' TYP='POOL_ROOTTREE' OPT='REC'"}
RecordStream/FileRecord4
{'Output': "DATAFILE='FishyStuff.dst' SVC='RootCnvSvc' OPT='REC'"}
RecordStream/FileRecord5
{'Output': "DATAFILE='FishyStuff.dst' SVC='FileRecordCnvSvc' OPT='REC'"}
RecordStream/RubbishRecord
{'EvtDataSvc': 'CrappyNonexistingService'}
==========================
Debugging Input
EventSelector/EventSelector
{}
==========================
==========================
Debugging Persistencies
[]
==========================
Debugging External Services
==========================
Debugging Persistency Services
==========================
Debugging Streams
RecordStream/FileRecord
{'EvtConversionSvc': 'FileRecordPersistencySvc',
 'EvtDataSvc': 'FileRecordDataSvc',
 'ItemList': ['/FileRecords#999'],
 'Output': "DATAFILE='FishyStuff.dst' SVC='FileRecordCnvSvc' OPT='REC'"}
RecordStream/FileRecord2
{'EvtConversionSvc': 'FileRecordPersistencySvc',
 'EvtDataSvc': 'FileRecordDataSvc',
 'ItemList': ['/FileRecords#999'],
 'Output': "DATAFILE='FishyStuff.dst' SVC='FileRecordCnvSvc' OPT='REC'"}
RecordStream/FileRecord3
{'EvtConversionSvc': 'FileRecordPersistencySvc',
 'EvtDataSvc': 'FileRecordDataSvc',
 'ItemList': ['/FileRecords#999'],
 'Output': "DATAFILE='FishyStuff.dst' SVC='FileRecordCnvSvc' OPT='REC'"}
RecordStream/FileRecord4
{'EvtConversionSvc': 'FileRecordPersistencySvc',
 'EvtDataSvc': 'FileRecordDataSvc',
 'ItemList': ['/FileRecords#999'],
 'Output': "DATAFILE='FishyStuff.dst' SVC='FileRecordCnvSvc' OPT='REC'"}
RecordStream/FileRecord5
{'EvtConversionSvc': 'FileRecordPersistencySvc',
 'EvtDataSvc': 'FileRecordDataSvc',
 'ItemList': ['/FileRecords#999'],
 'Output': "DATAFILE='FishyStuff.dst' SVC='FileRecordCnvSvc' OPT='REC'"}
RecordStream/RubbishRecord
{'EvtConversionSvc': 'FileRecordPersistencySvc',
 'EvtDataSvc': 'FileRecordDataSvc',
 'ItemList': ['/FileRecords#999']}
==========================
Debugging Input
EventSelector/EventSelector
{}
==========================
=====================
MDF
==========================
Debugging Persistencies
[]
==========================
Debugging External Services
==========================
Debugging Persistency Services
==========================
Debugging Streams
RecordStream/FileRecord
{'EvtConversionSvc': 'FileRecordPersistencySvc',
 'EvtDataSvc': 'FileRecordDataSvc',
 'ItemList': ['/FileRecords#999'],
 'Output': "DATAFILE='FishyStuff.dst' TYP='NOTYPE' OPT='REC'"}
RecordStream/FileRecord2
{'EvtConversionSvc': 'FileRecordPersistencySvc',
 'EvtDataSvc': 'FileRecordDataSvc',
 'ItemList': ['/FileRecords#999'],
 'Output': "DATAFILE='FishyStuff.dst' TYP='NOTYPE' OPT='REC'"}
RecordStream/FileRecord3
{'EvtConversionSvc': 'FileRecordPersistencySvc',
 'EvtDataSvc': 'FileRecordDataSvc',
 'ItemList': ['/FileRecords#999'],
 'Output': "DATAFILE='FishyStuff.dst' TYP='POOL_ROOTTREE' OPT='REC'"}
RecordStream/FileRecord4
{'EvtConversionSvc': 'FileRecordPersistencySvc',
 'EvtDataSvc': 'FileRecordDataSvc',
 'ItemList': ['/FileRecords#999'],
 'Output': "DATAFILE='FishyStuff.dst' SVC='RootCnvSvc' OPT='REC'"}
RecordStream/FileRecord5
{'EvtConversionSvc': 'FileRecordPersistencySvc',
 'EvtDataSvc': 'FileRecordDataSvc',
 'ItemList': ['/FileRecords#999'],
 'Output': "DATAFILE='FishyStuff.dst' SVC='FileRecordCnvSvc' OPT='REC'"}
RecordStream/RubbishRecord
{'EvtConversionSvc': 'FileRecordPersistencySvc',
 'EvtDataSvc': 'CrappyNonexistingService',
 'ItemList': ['/FileRecords#999']}
==========================
Debugging Input
EventSelector/EventSelector
{}
==========================
==========================
Debugging Persistencies
[]
==========================
Debugging External Services
==========================
Debugging Persistency Services
==========================
Debugging Streams
RecordStream/FileRecord
{'EvtConversionSvc': 'FileRecordPersistencySvc',
 'EvtDataSvc': 'FileRecordDataSvc',
 'ItemList': ['/FileRecords#999'],
 'Output': "DATAFILE='FishyStuff.dst' TYP='NOTYPE' OPT='REC'"}
RecordStream/FileRecord2
{'EvtConversionSvc': 'FileRecordPersistencySvc',
 'EvtDataSvc': 'FileRecordDataSvc',
 'ItemList': ['/FileRecords#999'],
 'Output': "DATAFILE='FishyStuff.dst' TYP='NOTYPE' OPT='REC'"}
RecordStream/FileRecord3
{'EvtConversionSvc': 'FileRecordPersistencySvc',
 'EvtDataSvc': 'FileRecordDataSvc',
 'ItemList': ['/FileRecords#999'],
 'Output': "DATAFILE='FishyStuff.dst' TYP='POOL_ROOTTREE' OPT='REC'"}
RecordStream/FileRecord4
{'EvtConversionSvc': 'FileRecordPersistencySvc',
 'EvtDataSvc': 'FileRecordDataSvc',
 'ItemList': ['/FileRecords#999'],
 'Output': "DATAFILE='FishyStuff.dst' SVC='RootCnvSvc' OPT='REC'"}
RecordStream/FileRecord5
{'EvtConversionSvc': 'FileRecordPersistencySvc',
 'EvtDataSvc': 'FileRecordDataSvc',
 'ItemList': ['/FileRecords#999'],
 'Output': "DATAFILE='FishyStuff.dst' SVC='FileRecordCnvSvc' OPT='REC'"}
RecordStream/RubbishRecord
{'EvtConversionSvc': 'FileRecordPersistencySvc',
 'EvtDataSvc': 'CrappyNonexistingService',
 'ItemList': ['/FileRecords#999']}
==========================
Debugging Input
EventSelector/EventSelector
{}
==========================
=====================
