ApplicationMgr    SUCCESS
====================================================================================================================================
====================================================================================================================================
ApplicationMgr       INFO Application Manager Configured successfully
DetectorPersist...   INFO Added successfully Conversion service:XmlCnvSvc
DetectorDataSvc   SUCCESS Detector description database: git:/lhcb.xml
EventLoopMgr      WARNING Unable to locate service "EventSelector"
EventLoopMgr      WARNING No events will be processed from external input.
ApplicationMgr       INFO Application Manager Initialized successfully
ApplicationMgr       INFO Application Manager Started successfully
DD4hep            WARNING ++ STD conditions NOT defined by client. NTP defaults taken.
CondAlg              INFO parameter value extracted: 1.3 2.1 4.5 5.6
CondAlg              INFO parameter value extracted: 100.6 101.7 4.5 5.6
CondAlg              INFO parameter value extracted: 1.3 2.1 4.5 5.6
ApplicationMgr       INFO Application Manager Stopped successfully
EventLoopMgr         INFO Histograms converted successfully according to request.
ToolSvc              INFO Removing all tools created by ToolSvc
ApplicationMgr       INFO Application Manager Finalized successfully
ApplicationMgr       INFO Application Manager Terminated successfully
