ApplicationMgr    SUCCESS
====================================================================================================================================
====================================================================================================================================
ApplicationMgr       INFO Application Manager Configured successfully
DetectorPersist...   INFO Added successfully Conversion service:XmlCnvSvc
DetectorDataSvc   SUCCESS Detector description database: git:/lhcb.xml
ToolSvc.DQAccep...VERBOSE ServiceLocatorHelper::service: found service EventDataSvc
ToolSvc.DQAccep...  DEBUG Initialize base class GaudiCommon<AlgTool>
ToolSvc.DQAccep...  DEBUG could not locate CounterSummarySvc, no counter summary will be made
ToolSvc.DQAccep...  DEBUG Property ['Name': Value] =  'AuditFinalize':False
ToolSvc.DQAccep...  DEBUG Property ['Name': Value] =  'AuditInitialize':False
ToolSvc.DQAccep...  DEBUG Property ['Name': Value] =  'AuditStart':False
ToolSvc.DQAccep...  DEBUG Property ['Name': Value] =  'AuditStop':False
ToolSvc.DQAccep...  DEBUG Property ['Name': Value] =  'ByRun':True
ToolSvc.DQAccep...  DEBUG Property ['Name': Value] =  'ConditionPath':Conditions/Online/LHCb/RunParameters
ToolSvc.DQAccep...  DEBUG Property ['Name': Value] =  'Context':
ToolSvc.DQAccep...  DEBUG Property ['Name': Value] =  'ContextService':AlgContextSvc
ToolSvc.DQAccep...  DEBUG Property ['Name': Value] =  'CounterList':[ '.*' ]
ToolSvc.DQAccep...  DEBUG Property ['Name': Value] =  'ErrorsPrint':True
ToolSvc.DQAccep...  DEBUG Property ['Name': Value] =  'Filter':BasicDQFilter/Filter
ToolSvc.DQAccep...  DEBUG Property ['Name': Value] =  'MonitorService':MonitorSvc
ToolSvc.DQAccep...  DEBUG Property ['Name': Value] =  'OutputLevel':1
ToolSvc.DQAccep...  DEBUG Property ['Name': Value] =  'PropertiesPrint':False
ToolSvc.DQAccep...  DEBUG Property ['Name': Value] =  'RootInTES':
ToolSvc.DQAccep...  DEBUG Property ['Name': Value] =  'Scanner':CondDBDQScanner/Scanner
ToolSvc.DQAccep...  DEBUG Property ['Name': Value] =  'TypePrint':True
EventClockSvc.E...   INFO Event times generated from 4000000000 with steps of 5000000000
ToolSvc.DQAccep...  DEBUG DQAcceptTool/ToolSvc.DQAcceptTool initialized:
ToolSvc.DQAccep...  DEBUG   using condition at 'Conditions/Online/LHCb/RunParameters' for run boundaries
ToolSvc.DQAccep...  DEBUG   scanning flags with CondDBDQScanner/Scanner
ToolSvc.DQAccep...  DEBUG   analyze flags with BasicDQFilter/Filter
ToolSvc.DQAccep...VERBOSE ServiceLocatorHelper::service: found service EventDataSvc
ToolSvc.DQAccep...  DEBUG Initialize base class GaudiCommon<AlgTool>
ToolSvc.DQAccep...  DEBUG could not locate CounterSummarySvc, no counter summary will be made
ToolSvc.DQAccep...  DEBUG Property ['Name': Value] =  'AuditFinalize':False
ToolSvc.DQAccep...  DEBUG Property ['Name': Value] =  'AuditInitialize':False
ToolSvc.DQAccep...  DEBUG Property ['Name': Value] =  'AuditStart':False
ToolSvc.DQAccep...  DEBUG Property ['Name': Value] =  'AuditStop':False
ToolSvc.DQAccep...  DEBUG Property ['Name': Value] =  'Context':
ToolSvc.DQAccep...  DEBUG Property ['Name': Value] =  'ContextService':AlgContextSvc
ToolSvc.DQAccep...  DEBUG Property ['Name': Value] =  'CounterList':[ '.*' ]
ToolSvc.DQAccep...  DEBUG Property ['Name': Value] =  'ErrorsPrint':True
ToolSvc.DQAccep...  DEBUG Property ['Name': Value] =  'IgnoredFlags':[  ]
ToolSvc.DQAccep...  DEBUG Property ['Name': Value] =  'MonitorService':MonitorSvc
ToolSvc.DQAccep...  DEBUG Property ['Name': Value] =  'OutputLevel':1
ToolSvc.DQAccep...  DEBUG Property ['Name': Value] =  'PropertiesPrint':False
ToolSvc.DQAccep...  DEBUG Property ['Name': Value] =  'RootInTES':
ToolSvc.DQAccep...  DEBUG Property ['Name': Value] =  'TypePrint':True
ToolSvc.DQAccep...  DEBUG Adding private ToolHandle tool ToolSvc.DQAcceptTool.Filter (BasicDQFilter)
ToolSvc.DQAccep...VERBOSE ServiceLocatorHelper::service: found service EventDataSvc
ToolSvc.DQAccep...  DEBUG Initialize base class GaudiCommon<AlgTool>
ToolSvc.DQAccep...  DEBUG could not locate CounterSummarySvc, no counter summary will be made
ToolSvc.DQAccep...  DEBUG Property ['Name': Value] =  'AuditFinalize':False
ToolSvc.DQAccep...  DEBUG Property ['Name': Value] =  'AuditInitialize':False
ToolSvc.DQAccep...  DEBUG Property ['Name': Value] =  'AuditStart':False
ToolSvc.DQAccep...  DEBUG Property ['Name': Value] =  'AuditStop':False
ToolSvc.DQAccep...  DEBUG Property ['Name': Value] =  'ConditionPath':/Conditions/DQ/Flags
ToolSvc.DQAccep...  DEBUG Property ['Name': Value] =  'Context':
ToolSvc.DQAccep...  DEBUG Property ['Name': Value] =  'ContextService':AlgContextSvc
ToolSvc.DQAccep...  DEBUG Property ['Name': Value] =  'Converter':DetectorPersistencySvc
ToolSvc.DQAccep...  DEBUG Property ['Name': Value] =  'CounterList':[ '.*' ]
ToolSvc.DQAccep...  DEBUG Property ['Name': Value] =  'ErrorsPrint':True
ToolSvc.DQAccep...  DEBUG Property ['Name': Value] =  'MonitorService':MonitorSvc
ToolSvc.DQAccep...  DEBUG Property ['Name': Value] =  'OutputLevel':1
ToolSvc.DQAccep...  DEBUG Property ['Name': Value] =  'PropertiesPrint':False
ToolSvc.DQAccep...  DEBUG Property ['Name': Value] =  'RootInTES':
ToolSvc.DQAccep...  DEBUG Property ['Name': Value] =  'TypePrint':True
ToolSvc.DQAccep...VERBOSE ServiceLocatorHelper::service: found service DetectorPersistencySvc
ToolSvc.DQAccep...  DEBUG Adding private ToolHandle tool ToolSvc.DQAcceptTool.Scanner (CondDBDQScanner)
DQFilterSvc         DEBUG DQFilterSvc/DQFilterSvc initialized:
DQFilterSvc         DEBUG   filtering using DQAcceptTool/DQAcceptTool
EventLoopMgr      WARNING Unable to locate service "EventSelector"
EventLoopMgr      WARNING No events will be processed from external input.
ApplicationMgr       INFO Application Manager Initialized successfully
ApplicationMgr       INFO Application Manager Started successfully
ToolSvc.DQAccep...VERBOSE Updating Data Quality flags for run 1
ToolSvc.DQAccep...VERBOSE ServiceLocatorHelper::service: found service DetectorDataSvc
ToolSvc.DQAccep...VERBOSE -> {}
DQFilterSvc       VERBOSE Handling incident: good event
ToolSvc.DQAccep...VERBOSE Updating Data Quality flags for run 2
ToolSvc.DQAccep...VERBOSE -> {MyDet: 1, OtherDet: 1}
DQFilterSvc       VERBOSE Handling incident: bad event
DQFilterSvc       VERBOSE Handling incident: bad event
DQFilterSvc       VERBOSE Handling incident: bad event
DQFilterSvc       VERBOSE Handling incident: bad event
DQFilterSvc       VERBOSE Handling incident: bad event
ToolSvc.DQAccep...VERBOSE Updating Data Quality flags for run 3
ToolSvc.DQAccep...VERBOSE -> {OtherDet: 1}
DQFilterSvc       VERBOSE Handling incident: bad event
DQFilterSvc       VERBOSE Handling incident: bad event
ToolSvc.DQAccep...VERBOSE Updating Data Quality flags for run 4
ToolSvc.DQAccep...VERBOSE -> {}
DQFilterSvc       VERBOSE Handling incident: good event
DQFilterSvc       VERBOSE Handling incident: good event
ApplicationMgr       INFO Application Manager Stopped successfully
EventLoopMgr         INFO Histograms converted successfully according to request.
ToolSvc              INFO Removing all tools created by ToolSvc
ToolSvc.DQAccep...  DEBUG  ==> Finalize the base class GaudiTool
ToolSvc.DQAccep...  DEBUG Tools to release :
ToolSvc.DQAccep...  DEBUG Services to release :
ToolSvc.DQAccep...  DEBUG  ==> Finalize the base class GaudiTool
ToolSvc.DQAccep...  DEBUG Tools to release :
ToolSvc.DQAccep...  DEBUG Services to release :
ToolSvc.DQAccep...  DEBUG  ==> Finalize the base class GaudiTool
ToolSvc.DQAccep...  DEBUG Tools to release :
ToolSvc.DQAccep...  DEBUG Services to release :
ToolSvc.DQAccep...  DEBUG Releasing service 'UpdateManagerSvc'
DQFilterSvc          INFO #=10      Sum=3           Eff=|( 30.00000 +- 14.4914 )%|
DQFilterSvc          INFO ToolSvc already finalized: cannot release tools. Check options.
ApplicationMgr       INFO Application Manager Finalized successfully
ApplicationMgr       INFO Application Manager Terminated successfully
