ApplicationMgr    SUCCESS
====================================================================================================================================
====================================================================================================================================
ApplicationMgr       INFO Application Manager Configured successfully
DetectorPersist...   INFO Added successfully Conversion service:XmlCnvSvc
DetectorDataSvc   SUCCESS Detector description database: git:/lhcb.xml
GaudiSequencer       INFO Member list: DQFilter
RndmGenSvc.Engine    INFO Generator engine type:CLHEP::RanluxEngine
RndmGenSvc.Engine    INFO Current Seed:1234567 Luxury:3
RndmGenSvc           INFO Using Random engine:HepRndm::Engine<CLHEP::RanluxEngine>
DQFilter          VERBOSE ServiceLocatorHelper::service: found service EventDataSvc
DQFilter          VERBOSE ServiceLocatorHelper::service: found service TimelineSvc
DQFilter          VERBOSE ServiceLocatorHelper::service: found service EventDataSvc
DQFilter            DEBUG DQFilter/DQFilter initialized:
DQFilter            DEBUG   filtering on execute
DQFilter            DEBUG   using DQAcceptTool
DQFilter            DEBUG input handles: 0
DQFilter            DEBUG output handles: 0
DQFilter.DQAcce...VERBOSE ServiceLocatorHelper::service: found service EventDataSvc
DQFilter.DQAcce...  DEBUG Initialize base class GaudiCommon<AlgTool>
DQFilter.DQAcce...  DEBUG could not locate CounterSummarySvc, no counter summary will be made
DQFilter.DQAcce...  DEBUG Property ['Name': Value] =  'AuditFinalize':False
DQFilter.DQAcce...  DEBUG Property ['Name': Value] =  'AuditInitialize':False
DQFilter.DQAcce...  DEBUG Property ['Name': Value] =  'AuditStart':False
DQFilter.DQAcce...  DEBUG Property ['Name': Value] =  'AuditStop':False
DQFilter.DQAcce...  DEBUG Property ['Name': Value] =  'ByRun':True
DQFilter.DQAcce...  DEBUG Property ['Name': Value] =  'ConditionPath':Conditions/Online/LHCb/RunParameters
DQFilter.DQAcce...  DEBUG Property ['Name': Value] =  'Context':
DQFilter.DQAcce...  DEBUG Property ['Name': Value] =  'ContextService':AlgContextSvc
DQFilter.DQAcce...  DEBUG Property ['Name': Value] =  'CounterList':[ '.*' ]
DQFilter.DQAcce...  DEBUG Property ['Name': Value] =  'ErrorsPrint':True
DQFilter.DQAcce...  DEBUG Property ['Name': Value] =  'Filter':BasicDQFilter/Filter
DQFilter.DQAcce...  DEBUG Property ['Name': Value] =  'MonitorService':MonitorSvc
DQFilter.DQAcce...  DEBUG Property ['Name': Value] =  'OutputLevel':1
DQFilter.DQAcce...  DEBUG Property ['Name': Value] =  'PropertiesPrint':False
DQFilter.DQAcce...  DEBUG Property ['Name': Value] =  'RootInTES':
DQFilter.DQAcce...  DEBUG Property ['Name': Value] =  'Scanner':CondDBDQScanner/Scanner
DQFilter.DQAcce...  DEBUG Property ['Name': Value] =  'TypePrint':True
EventClockSvc.E...   INFO Event times generated from 4000000000 with steps of 5000000000
DQFilter.DQAcce...  DEBUG DQAcceptTool/DQFilter.DQAcceptTool initialized:
DQFilter.DQAcce...  DEBUG   using condition at 'Conditions/Online/LHCb/RunParameters' for run boundaries
DQFilter.DQAcce...  DEBUG   scanning flags with CondDBDQScanner/Scanner
DQFilter.DQAcce...  DEBUG   analyze flags with BasicDQFilter/Filter
DQFilter.DQAcce...VERBOSE ServiceLocatorHelper::service: found service EventDataSvc
DQFilter.DQAcce...  DEBUG Initialize base class GaudiCommon<AlgTool>
DQFilter.DQAcce...  DEBUG could not locate CounterSummarySvc, no counter summary will be made
DQFilter.DQAcce...  DEBUG Property ['Name': Value] =  'AuditFinalize':False
DQFilter.DQAcce...  DEBUG Property ['Name': Value] =  'AuditInitialize':False
DQFilter.DQAcce...  DEBUG Property ['Name': Value] =  'AuditStart':False
DQFilter.DQAcce...  DEBUG Property ['Name': Value] =  'AuditStop':False
DQFilter.DQAcce...  DEBUG Property ['Name': Value] =  'Context':
DQFilter.DQAcce...  DEBUG Property ['Name': Value] =  'ContextService':AlgContextSvc
DQFilter.DQAcce...  DEBUG Property ['Name': Value] =  'CounterList':[ '.*' ]
DQFilter.DQAcce...  DEBUG Property ['Name': Value] =  'ErrorsPrint':True
DQFilter.DQAcce...  DEBUG Property ['Name': Value] =  'IgnoredFlags':[ 'MyDet' , 'otherdet' ]
DQFilter.DQAcce...  DEBUG Property ['Name': Value] =  'MonitorService':MonitorSvc
DQFilter.DQAcce...  DEBUG Property ['Name': Value] =  'OutputLevel':1
DQFilter.DQAcce...  DEBUG Property ['Name': Value] =  'PropertiesPrint':False
DQFilter.DQAcce...  DEBUG Property ['Name': Value] =  'RootInTES':
DQFilter.DQAcce...  DEBUG Property ['Name': Value] =  'TypePrint':True
DQFilter.DQAcce...  DEBUG Adding private ToolHandle tool DQFilter.DQAcceptTool.Filter (BasicDQFilter)
DQFilter.DQAcce...VERBOSE ServiceLocatorHelper::service: found service EventDataSvc
DQFilter.DQAcce...  DEBUG Initialize base class GaudiCommon<AlgTool>
DQFilter.DQAcce...  DEBUG could not locate CounterSummarySvc, no counter summary will be made
DQFilter.DQAcce...  DEBUG Property ['Name': Value] =  'AuditFinalize':False
DQFilter.DQAcce...  DEBUG Property ['Name': Value] =  'AuditInitialize':False
DQFilter.DQAcce...  DEBUG Property ['Name': Value] =  'AuditStart':False
DQFilter.DQAcce...  DEBUG Property ['Name': Value] =  'AuditStop':False
DQFilter.DQAcce...  DEBUG Property ['Name': Value] =  'ConditionPath':/Conditions/DQ/Flags
DQFilter.DQAcce...  DEBUG Property ['Name': Value] =  'Context':
DQFilter.DQAcce...  DEBUG Property ['Name': Value] =  'ContextService':AlgContextSvc
DQFilter.DQAcce...  DEBUG Property ['Name': Value] =  'Converter':DetectorPersistencySvc
DQFilter.DQAcce...  DEBUG Property ['Name': Value] =  'CounterList':[ '.*' ]
DQFilter.DQAcce...  DEBUG Property ['Name': Value] =  'ErrorsPrint':True
DQFilter.DQAcce...  DEBUG Property ['Name': Value] =  'MonitorService':MonitorSvc
DQFilter.DQAcce...  DEBUG Property ['Name': Value] =  'OutputLevel':1
DQFilter.DQAcce...  DEBUG Property ['Name': Value] =  'PropertiesPrint':False
DQFilter.DQAcce...  DEBUG Property ['Name': Value] =  'RootInTES':
DQFilter.DQAcce...  DEBUG Property ['Name': Value] =  'TypePrint':True
DQFilter.DQAcce...VERBOSE ServiceLocatorHelper::service: found service DetectorPersistencySvc
DQFilter.DQAcce...  DEBUG Adding private ToolHandle tool DQFilter.DQAcceptTool.Scanner (CondDBDQScanner)
DQFilter            DEBUG Adding private ToolHandle tool DQFilter.DQAcceptTool (DQAcceptTool)
DQFilter            DEBUG Data Deps for DQFilter
EventLoopMgr      WARNING Unable to locate service "EventSelector"
EventLoopMgr      WARNING No events will be processed from external input.
ApplicationMgr       INFO Application Manager Initialized successfully
ApplicationMgr       INFO Application Manager Started successfully
DQFilter.DQAcce...VERBOSE Updating Data Quality flags for run 1
DQFilter.DQAcce...VERBOSE ServiceLocatorHelper::service: found service DetectorDataSvc
DQFilter.DQAcce...VERBOSE -> {}
DQFilter          VERBOSE Filter event: good event
DQFilter.DQAcce...VERBOSE Updating Data Quality flags for run 2
DQFilter.DQAcce...VERBOSE -> {MyDet: 1, OtherDet: 1}
DQFilter.DQAcce...  DEBUG Ignoring flag: MyDet
DQFilter.DQAcce...  DEBUG Ignoring flag: OtherDet
DQFilter          VERBOSE Filter event: good event
DQFilter          VERBOSE Filter event: good event
DQFilter          VERBOSE Filter event: good event
DQFilter          VERBOSE Filter event: good event
DQFilter          VERBOSE Filter event: good event
DQFilter.DQAcce...VERBOSE Updating Data Quality flags for run 3
DQFilter.DQAcce...VERBOSE -> {OtherDet: 1}
DQFilter.DQAcce...  DEBUG Ignoring flag: OtherDet
DQFilter          VERBOSE Filter event: good event
DQFilter          VERBOSE Filter event: good event
DQFilter.DQAcce...VERBOSE Updating Data Quality flags for run 4
DQFilter.DQAcce...VERBOSE -> {}
DQFilter          VERBOSE Filter event: good event
DQFilter          VERBOSE Filter event: good event
ApplicationMgr       INFO Application Manager Stopped successfully
EventLoopMgr         INFO Histograms converted successfully according to request.
ToolSvc              INFO Removing all tools created by ToolSvc
DQFilter.DQAcce...  DEBUG  ==> Finalize the base class GaudiTool
DQFilter.DQAcce...  DEBUG Tools to release :
DQFilter.DQAcce...  DEBUG Services to release :
DQFilter.DQAcce...  DEBUG  ==> Finalize the base class GaudiTool
DQFilter.DQAcce...  DEBUG Tools to release :
DQFilter.DQAcce...  DEBUG Services to release :
DQFilter.DQAcce...  DEBUG  ==> Finalize the base class GaudiTool
DQFilter.DQAcce...  DEBUG Tools to release :
DQFilter.DQAcce...  DEBUG Services to release :
DQFilter.DQAcce...  DEBUG Releasing service 'UpdateManagerSvc'
ApplicationMgr       INFO Application Manager Finalized successfully
ApplicationMgr       INFO Application Manager Terminated successfully
DQFilter             INFO Number of counters : 1
 |    Counter                                      |     #     |    sum     | mean/eff^* | rms/err^*  |     min     |     max     |
 | "efficiency"                                    |        10 |         10 |     1.0000 |
