ApplicationMgr    SUCCESS
====================================================================================================================================
====================================================================================================================================
DetectorDataSvc   SUCCESS Detector description database: git:/lhcb.xml
MDFWriter            INFO Initialize MDFWriter
MDFWriter            INFO Received event request connection.
EventSelector     SUCCESS Reading Event record 1. Record number within stream 1: 1
MDFWriter            INFO Size:  959504 Output:file://mdfwriter.mdf MD5 sum:78ec1e10aa2cd4277839d0259f24c4de
